MY WILD THING REPORT
…
3.1.4 Statistical Analysis

Now, let’s perform statistical analyses to validate our expectations.

3.1.4.1 Expectation 1: Trend Analysis

# Group the data by date and count the number of sightings for each date
sightings_count <- WILD_THING_woylie %>%
  group_by(eventDate) %>%
  summarise(Number_of_Sightings = n())

# View the resulting data frame
print(sightings_count)

# A tibble: 162 × 2
   eventDate  Number_of_Sightings
   <date>                   <int>
 1 2000-11-07                   1
 2 2001-03-22                   1
 3 2010-10-13                   1
 4 2014-03-18                   2
 5 2014-03-19                   2
 6 2014-04-07                   2
 7 2014-04-15                   5
 8 2014-04-16                   3
 9 2014-04-17                   1
10 2021-09-01                  11
# ℹ 152 more rows
…
